[
    {
        "opcode": 1,
        "readType": "readPaddedString"
    },
    {
        "opcode": 2,
        "readType": "readPaddedString"
    },
    {
        "opcode": 3,
        "readType": "read11Bytes"
    },
    {
        "opcode": 4,
        "readType": "read11Bytes"
    },
    {
        "opcode": 5,
        "readType": "readUShort"
    },
    {
        "opcode": 6,
        "readType": "readUByte"
    },
    {
        "opcode": 7,
        "readType": "readUByte"
    },
    {
        "opcode": 8,
        "readType": "returnTrue"
    },
    {
        "opcode": 9,
        "readType": "readUByte"
    },
    {
        "opcode": 9,
        "readType": "readUByte"
    },
   {
        "opcode": 10,
        "readType": "read5UByte"
    },
    {
        "opcode": 13,
        "type": "Array",
        "count": {"readType": "readUByte"},
        "element_type": {"readType": "readUShort"}
    },
    {
        "opcode": 14,
        "type": "Array",
        "count": {"readType": "readUByte"},
        "element_type": {"readType": "readUShort"}
    },
    {
        "opcode": 15,
        "readType": "readUShort"
    },
    {
        "opcode": 17,
        "readType": "readSmart32"
    },
    {
        "opcode": 249,
        "readType": "readTable"
    }
]